sim/sobel_x.vcd
$date
   Wed Jul  8 15:35:40 2026
$end

$version
  2025.2
  $dumpfile ("dump.vcd") 
$end

$timescale
  1ps
$end

$scope module tb_conv_top(KSEL=3) $end
$var reg 1 ! clk $end
$var reg 1 " rst_n $end
$var reg 1 # k_we $end
$var reg 2 $ k_wset [1:0] $end
$var reg 4 % k_widx [3:0] $end
$var reg 8 & k_din [7:0] $end
$var reg 2 ' k_sel [1:0] $end
$var reg 1 ( px_valid $end
$var reg 8 ) px_data [7:0] $end
$var wire 1 * out_valid $end
$var wire 16 + out_data [15:0] $end
$var wire 1 , frame_done $end
$var reg 2048 - img_f [2047:0] $end
$var reg 2048 . ker_f [2047:0] $end
$var reg 2048 / exp_f [2047:0] $end
$var integer 32 0 gaps [31:0] $end
$var integer 32 1 out_cnt [31:0] $end
$var integer 32 2 err_cnt [31:0] $end
$var integer 32 3 cycle [31:0] $end
$var integer 32 4 first_px_cycle [31:0] $end
$var integer 32 5 first_out_cycle [31:0] $end
$var integer 32 6 done_seen [31:0] $end
$scope module dut $end
$var wire 1 7 clk $end
$var wire 1 8 rst_n $end
$var wire 1 9 k_we $end
$var wire 2 : k_wset [1:0] $end
$var wire 4 ; k_widx [3:0] $end
$var wire 8 < k_din [7:0] $end
$var wire 2 = k_sel [1:0] $end
$var wire 1 > px_valid $end
$var wire 8 ? px_data [7:0] $end
$var wire 1 * out_valid $end
$var wire 16 + out_data [15:0] $end
$var reg 1 @ frame_done $end
$var wire 72 A window [71:0] $end
$var wire 1 B win_valid $end
$var wire 72 C coeffs [71:0] $end
$var reg 10 D out_cnt [9:0] $end
$scope module u_kmem $end
$var wire 1 7 clk $end
$var wire 1 9 k_we $end
$var wire 2 : k_wset [1:0] $end
$var wire 4 ; k_widx [3:0] $end
$var wire 8 < k_din [7:0] $end
$var wire 2 = k_sel [1:0] $end
$var reg 72 E coeffs [71:0] $end
$var integer 32 F i [31:0] $end
$upscope $end
$scope module u_win $end
$var wire 1 7 clk $end
$var wire 1 8 rst_n $end
$var wire 1 > px_valid $end
$var wire 8 ? px_data [7:0] $end
$var wire 72 A window [71:0] $end
$var reg 1 G win_valid $end
$var reg 5 H col [4:0] $end
$var reg 5 I row [4:0] $end
$var wire 8 J \g_lb[0].lb_dout  [7:0] $end
$var wire 8 K \g_lb[1].lb_dout  [7:0] $end
$var integer 32 L i [31:0] $end
$var integer 32 M j [31:0] $end
$scope module g_lb[0].g_head.u_lb $end
$var wire 1 7 clk $end
$var wire 1 > we $end
$var wire 5 N addr [4:0] $end
$var wire 8 ? din [7:0] $end
$var wire 8 J dout [7:0] $end
$upscope $end
$scope module g_lb[1].g_tail.u_lb $end
$var wire 1 7 clk $end
$var wire 1 > we $end
$var wire 5 O addr [4:0] $end
$var wire 8 J din [7:0] $end
$var wire 8 K dout [7:0] $end
$upscope $end
$upscope $end
$scope module u_mac $end
$var wire 1 7 clk $end
$var wire 1 8 rst_n $end
$var wire 1 B in_valid $end
$var wire 72 A window [71:0] $end
$var wire 72 C coeffs [71:0] $end
$var reg 1 P out_valid $end
$var reg 16 Q out_data [15:0] $end
$var reg 1 R v1 $end
$var integer 32 S k [31:0] $end
$var reg 20 T sum_c [19:0] $end
$var reg 20 U acc [19:0] $end
$var reg 1 V v2 $end
$upscope $end
$upscope $end
$scope task load_kernel $end
$var integer 32 W set [31:0] $end
$var integer 32 X real_coeffs [31:0] $end
$var integer 32 Y i [31:0] $end
$upscope $end
$scope task stream_image $end
$var integer 32 Z i [31:0] $end
$upscope $end
$upscope $end
$enddefinitions $end

#0
$dumpvars
0!
0"
0#
b0 $
b0 %
b0 &
b0 '
0(
b0 )
x*
bx +
x,
b11101000110010101110011011101000111001100101111011100110110111101100010011001010110110001011111011110000010111101101001011011010110011100101110011010000110010101111000 -
b11101000110010101110011011101000111001100101111011100110110111101100010011001010110110001011111011110000010111101101011011001010111001001101110011001010110110000101110011010000110010101111000 .
b111010001100101011100110111010001110011001011110111001101101111011000100110010101101100010111110111100000101111011001010111100001110000011001010110001101110100011001010110010000101110011010000110010101111000 /
b0 0
b0 1
b0 2
b0 3
b11111111111111111111111111111111 4
b11111111111111111111111111111111 5
b0 6
07
08
09
b0 :
b0 ;
b0 <
b0 =
0>
b0 ?
x@
bx A
xB
bx C
bx D
bx E
bx F
xG
bx H
bx I
bx J
bx K
bx L
bx M
bx N
bx O
xP
bx Q
xR
bx S
bx T
bx U
xV
bx W
bx X
bx Y
bx Z
$end

#5000
1!
0*
0,
b1 3
17
0@
0B
b0 D
b1001 F
0G
b0 H
b0 I
b0 N
b0 O
0P
0R
0V

#10000
0!
07

#15000
1!
b10 3
17
b1001 F

#20000
0!
07

#25000
1!
b11 3
17
b1001 F

#30000
0!
07

#35000
1!
b100 3
17
b1001 F

#40000
0!
07

#45000
1!
b101 3
17
b1001 F

#50000
0!
1"
07
18
b0 W
b0 X
b0 Y

#55000
1!
b110 3
17
b1001 F

#60000
0!
1#
b1010101 &
07
19
b1010101 <
b1 Y

#65000
1!
b111 3
17
b1001 F

#70000
0!
b1 %
07
b1 ;
b10 Y

#75000
1!
b1000 3
17
bx01010101 C
bx01010101 E
b1001 F

#80000
0!
b10 %
07
b10 ;
b11 Y

#85000
1!
b1001 3
17
bx0101010101010101 C
bx0101010101010101 E
b1001 F

#90000
0!
b11 %
07
b11 ;
b100 Y

#95000
1!
b1010 3
17
bx010101010101010101010101 C
bx010101010101010101010101 E
b1001 F

#100000
0!
b100 %
07
b100 ;
b101 Y

#105000
1!
b1011 3
17
bx01010101010101010101010101010101 C
bx01010101010101010101010101010101 E
b1001 F

#110000
0!
b101 %
07
b101 ;
b110 Y

#115000
1!
b1100 3
17
bx0101010101010101010101010101010101010101 C
bx0101010101010101010101010101010101010101 E
b1001 F

#120000
0!
b110 %
07
b110 ;
b111 Y

#125000
1!
b1101 3
17
bx010101010101010101010101010101010101010101010101 C
bx010101010101010101010101010101010101010101010101 E
b1001 F

#130000
0!
b111 %
07
b111 ;
b1000 Y

#135000
1!
b1110 3
17
bx01010101010101010101010101010101010101010101010101010101 C
bx01010101010101010101010101010101010101010101010101010101 E
b1001 F

#140000
0!
b1000 %
07
b1000 ;
b1001 Y

#145000
1!
b1111 3
17
bx0101010101010101010101010101010101010101010101010101010101010101 C
bx0101010101010101010101010101010101010101010101010101010101010101 E
b1001 F

#150000
0!
0#
07
09
b11 W
b1 X
b0 Y

#155000
1!
b10000 3
17
b10101010101010101010101010101010101010101010101010101010101010101010101 C
b10101010101010101010101010101010101010101010101010101010101010101010101 E
b1001 F

#160000
0!
1#
b11 $
b0 %
b11111111 &
07
19
b11 :
b0 ;
b11111111 <
b1 Y

#165000
1!
b10001 3
17
b1001 F

#170000
0!
b1 %
b0 &
07
b1 ;
b0 <
b10 Y

#175000
1!
b10010 3
17
b1001 F

#180000
0!
b10 %
b1 &
07
b10 ;
b1 <
b11 Y

#185000
1!
b10011 3
17
b1001 F

#190000
0!
b11 %
b11111110 &
07
b11 ;
b11111110 <
b100 Y

#195000
1!
b10100 3
17
b1001 F

#200000
0!
b100 %
b0 &
07
b100 ;
b0 <
b101 Y

#205000
1!
b10101 3
17
b1001 F

#210000
0!
b101 %
b10 &
07
b101 ;
b10 <
b110 Y

#215000
1!
b10110 3
17
b1001 F

#220000
0!
b110 %
b11111111 &
07
b110 ;
b11111111 <
b111 Y

#225000
1!
b10111 3
17
b1001 F

#230000
0!
b111 %
b0 &
07
b111 ;
b0 <
b1000 Y

#235000
1!
b11000 3
17
b1001 F

#240000
0!
b1000 %
b1 &
07
b1000 ;
b1 <
b1001 Y

#245000
1!
b11001 3
17
b1001 F

#250000
0!
0#
07
09

#255000
1!
b11010 3
17
b1001 F

#260000
0!
b11 '
07
b11 =

#265000
1!
b11011 3
17
b10000000011111111000000100000000011111110000000010000000011111111 C
b10000000011111111000000100000000011111110000000010000000011111111 E
b1001 F

#270000
0!
07

#275000
1!
b11100 3
17
b1001 F

#280000
0!
07
b0 Z

#285000
1!
b11101 3
17
b1001 F

#290000
0!
1(
b11110 )
07
1>
b11110 ?
b1 Z

#295000
1!
b11110 3
b11101 4
17
b11110xxxxxxxxxxxxxxxxxxxxxxxxxxxxxxxxxxxxxxxxxxxxxxxxxxxxxxxxxxxxxxxx A
b1001 F
b1 H
b11 L
b10 M
b1 N
b1 O

#300000
0!
07
b10 Z

#305000
1!
b11111 3
17
b1111000011110xxxxxxxxxxxxxxxxxxxxxxxxxxxxxxxxxxxxxxxxxxxxxxxxxxxxxxxx A
b1001 F
b10 H
b11 L
b10 M
b10 N
b10 O

#310000
0!
07
b11 Z

#315000
1!
b100000 3
17
b111100001111000011110xxxxxxxxxxxxxxxxxxxxxxxxxxxxxxxxxxxxxxxxxxxxxxxx A
b1001 F
b11 H
b11 L
b10 M
b11 N
b11 O

#320000
0!
07
b100 Z

#325000
1!
b100001 3
17
b1001 F
b100 H
b11 L
b10 M
b100 N
b100 O

#330000
0!
07
b101 Z

#335000
1!
b100010 3
17
b1001 F
b101 H
b11 L
b10 M
b101 N
b101 O

#340000
0!
07
b110 Z

#345000
1!
b100011 3
17
b1001 F
b110 H
b11 L
b10 M
b110 N
b110 O

#350000
0!
07
b111 Z

#355000
1!
b100100 3
17
b1001 F
b111 H
b11 L
b10 M
b111 N
b111 O

#360000
0!
07
b1000 Z

#365000
1!
b100101 3
17
b1001 F
b1000 H
b11 L
b10 M
b1000 N
b1000 O

#370000
0!
07
b1001 Z

#375000
1!
b100110 3
17
b1001 F
b1001 H
b11 L
b10 M
b1001 N
b1001 O

#380000
0!
07
b1010 Z

#385000
1!
b100111 3
17
b1001 F
b1010 H
b11 L
b10 M
b1010 N
b1010 O

#390000
0!
07
b1011 Z

#395000
1!
b101000 3
17
b1001 F
b1011 H
b11 L
b10 M
b1011 N
b1011 O

#400000
0!
07
b1100 Z

#405000
1!
b101001 3
17
b1001 F
b1100 H
b11 L
b10 M
b1100 N
b1100 O

#410000
0!
07
b1101 Z

#415000
1!
b101010 3
17
b1001 F
b1101 H
b11 L
b10 M
b1101 N
b1101 O

#420000
0!
07
b1110 Z

#425000
1!
b101011 3
17
b1001 F
b1110 H
b11 L
b10 M
b1110 N
b1110 O

#430000
0!
07
b1111 Z

#435000
1!
b101100 3
17
b1001 F
b1111 H
b11 L
b10 M
b1111 N
b1111 O

#440000
0!
07
b10000 Z

#445000
1!
b101101 3
17
b1001 F
b10000 H
b11 L
b10 M
b10000 N
b10000 O

#450000
0!
b11001000 )
07
b11001000 ?
b10001 Z

#455000
1!
b101110 3
17
b110010000001111000011110xxxxxxxxxxxxxxxxxxxxxxxxxxxxxxxxxxxxxxxxxxxxxxxx A
b1001 F
b10001 H
b11 L
b10 M
b10001 N
b10001 O

#460000
0!
07
b10010 Z

#465000
1!
b101111 3
17
b110010001100100000011110xxxxxxxxxxxxxxxxxxxxxxxxxxxxxxxxxxxxxxxxxxxxxxxx A
b1001 F
b10010 H
b11 L
b10 M
b10010 N
b10010 O

#470000
0!
07
b10011 Z

#475000
1!
b110000 3
17
b110010001100100011001000xxxxxxxxxxxxxxxxxxxxxxxxxxxxxxxxxxxxxxxxxxxxxxxx A
b1001 F
b10011 H
b11 L
b10 M
b10011 N
b10011 O

#480000
0!
07
b10100 Z

#485000
1!
b110001 3
17
b1001 F
b10100 H
b11 L
b10 M
b10100 N
b10100 O

#490000
0!
07
b10101 Z

#495000
1!
b110010 3
17
b1001 F
b10101 H
b11 L
b10 M
b10101 N
b10101 O

#500000
0!
07
b10110 Z

#505000
1!
b110011 3
17
b1001 F
b10110 H
b11 L
b10 M
b10110 N
b10110 O

#510000
0!
07
b10111 Z

#515000
1!
b110100 3
17
b1001 F
b10111 H
b11 L
b10 M
b10111 N
b10111 O

#520000
0!
07
b11000 Z

#525000
1!
b110101 3
17
b1001 F
b11000 H
b11 L
b10 M
b11000 N
b11000 O

#530000
0!
07
b11001 Z

#535000
1!
b110110 3
17
b1001 F
b11001 H
b11 L
b10 M
b11001 N
b11001 O

#540000
0!
07
b11010 Z

#545000
1!
b110111 3
17
b1001 F
b11010 H
b11 L
b10 M
b11010 N
b11010 O

#550000
0!
07
b11011 Z

#555000
1!
b111000 3
17
b1001 F
b11011 H
b11 L
b10 M
b11011 N
b11011 O

#560000
0!
07
b11100 Z

#565000
1!
b111001 3
17
b1001 F
b11100 H
b11 L
b10 M
b11100 N
b11100 O

#570000
0!
07
b11101 Z

#575000
1!
b111010 3
17
b1001 F
b11101 H
b11 L
b10 M
b11101 N
b11101 O

#580000
0!
07
b11110 Z

#585000
1!
b111011 3
17
b1001 F
b11110 H
b11 L
b10 M
b11110 N
b11110 O

#590000
0!
07
b11111 Z

#595000
1!
b111100 3
17
b1001 F
b11111 H
b11 L
b10 M
b11111 N
b11111 O

#600000
0!
07
b100000 Z

#605000
1!
b111101 3
17
b1001 F
b0 H
b1 I
b11110 J
b11 L
b10 M
b0 N
b0 O

#610000
0!
b11110 )
07
b11110 ?
b100001 Z

#615000
1!
b111110 3
17
b11110110010001100100000011110xxxxxxxxxxxxxxxxxxxxxxxxxxxxxxxxxxxxxxxx A
b1001 F
b1 H
b11 L
b10 M
b1 N
b1 O

#620000
0!
07
b100010 Z

#625000
1!
b111111 3
17
b1111000011110110010000001111000011110xxxxxxxxxxxxxxxxxxxxxxxxxxxxxxxx A
b1001 F
b10 H
b11 L
b10 M
b10 N
b10 O

#630000
0!
07
b100011 Z

#635000
1!
b1000000 3
17
b111100001111000011110000111100001111000011110xxxxxxxxxxxxxxxxxxxxxxxx A
b1001 F
b11 H
b11 L
b10 M
b11 N
b11 O

#640000
0!
07
b100100 Z

#645000
1!
b1000001 3
17
b1001 F
b100 H
b11 L
b10 M
b100 N
b100 O

#650000
0!
07
b100101 Z

#655000
1!
b1000010 3
17
b1001 F
b101 H
b11 L
b10 M
b101 N
b101 O

#660000
0!
07
b100110 Z

#665000
1!
b1000011 3
17
b1001 F
b110 H
b11 L
b10 M
b110 N
b110 O

#670000
0!
07
b100111 Z

#675000
1!
b1000100 3
17
b1001 F
b111 H
b11 L
b10 M
b111 N
b111 O

#680000
0!
07
b101000 Z

#685000
1!
b1000101 3
17
b1001 F
b1000 H
b11 L
b10 M
b1000 N
b1000 O

#690000
0!
07
b101001 Z

#695000
1!
b1000110 3
17
b1001 F
b1001 H
b11 L
b10 M
b1001 N
b1001 O

#700000
0!
07
b101010 Z

#705000
1!
b1000111 3
17
b1001 F
b1010 H
b11 L
b10 M
b1010 N
b1010 O

#710000
0!
07
b101011 Z

#715000
1!
b1001000 3
17
b1001 F
b1011 H
b11 L
b10 M
b1011 N
b1011 O

#720000
0!
07
b101100 Z

#725000
1!
b1001001 3
17
b1001 F
b1100 H
b11 L
b10 M
b1100 N
b1100 O

#730000
0!
07
b101101 Z

#735000
1!
b1001010 3
17
b1001 F
b1101 H
b11 L
b10 M
b1101 N
b1101 O

#740000
0!
07
b101110 Z

#745000
1!
b1001011 3
17
b1001 F
b1110 H
b11 L
b10 M
b1110 N
b1110 O

#750000
0!
07
b101111 Z

#755000
1!
b1001100 3
17
b1001 F
b1111 H
b11 L
b10 M
b1111 N
b1111 O

#760000
0!
07
b110000 Z

#765000
1!
b1001101 3
17
b1001 F
b10000 H
b11001000 J
b11 L
b10 M
b10000 N
b10000 O

#770000
0!
b11001000 )
07
b11001000 ?
b110001 Z

#775000
1!
b1001110 3
17
b110010000001111000011110110010000001111000011110xxxxxxxxxxxxxxxxxxxxxxxx A
b1001 F
b10001 H
b11 L
b10 M
b10001 N
b10001 O

#780000
0!
07
b110010 Z

#785000
1!
b1001111 3
17
b110010001100100000011110110010001100100000011110xxxxxxxxxxxxxxxxxxxxxxxx A
b1001 F
b10010 H
b11 L
b10 M
b10010 N
b10010 O

#790000
0!
07
b110011 Z

#795000
1!
b1010000 3
17
b110010001100100011001000110010001100100011001000xxxxxxxxxxxxxxxxxxxxxxxx A
b1001 F
b10011 H
b11 L
b10 M
b10011 N
b10011 O

#800000
0!
07
b110100 Z

#805000
1!
b1010001 3
17
b1001 F
b10100 H
b11 L
b10 M
b10100 N
b10100 O

#810000
0!
07
b110101 Z

#815000
1!
b1010010 3
17
b1001 F
b10101 H
b11 L
b10 M
b10101 N
b10101 O

#820000
0!
07
b110110 Z

#825000
1!
b1010011 3
17
b1001 F
b10110 H
b11 L
b10 M
b10110 N
b10110 O

#830000
0!
07
b110111 Z

#835000
1!
b1010100 3
17
b1001 F
b10111 H
b11 L
b10 M
b10111 N
b10111 O

#840000
0!
07
b111000 Z

#845000
1!
b1010101 3
17
b1001 F
b11000 H
b11 L
b10 M
b11000 N
b11000 O

#850000
0!
07
b111001 Z

#855000
1!
b1010110 3
17
b1001 F
b11001 H
b11 L
b10 M
b11001 N
b11001 O

#860000
0!
07
b111010 Z

#865000
1!
b1010111 3
17
b1001 F
b11010 H
b11 L
b10 M
b11010 N
b11010 O

#870000
0!
07
b111011 Z

#875000
1!
b1011000 3
17
b1001 F
b11011 H
b11 L
b10 M
b11011 N
b11011 O

#880000
0!
07
b111100 Z

#885000
1!
b1011001 3
17
b1001 F
b11100 H
b11 L
b10 M
b11100 N
b11100 O

#890000
0!
07
b111101 Z

#895000
1!
b1011010 3
17
b1001 F
b11101 H
b11 L
b10 M
b11101 N
b11101 O

#900000
0!
07
b111110 Z

#905000
1!
b1011011 3
17
b1001 F
b11110 H
b11 L
b10 M
b11110 N
b11110 O

#910000
0!
07
b111111 Z

#915000
1!
b1011100 3
17
b1001 F
b11111 H
b11 L
b10 M
b11111 N
b11111 O

#920000
0!
07
b1000000 Z

#925000
1!
b1011101 3
17
b1001 F
b0 H
b10 I
b11110 J
b11110 K
b11 L
b10 M
b0 N
b0 O

#930000
0!
b11110 )
07
b11110 ?
b1000001 Z

#935000
1!
b1011110 3
17
b11110110010001100100000011110110010001100100000011110xxxxxxxxxxxxxxxx A
b1001 F
b1 H
b11 L
b10 M
b1 N
b1 O

#940000
0!
07
b1000010 Z

#945000
1!
b1011111 3
17
b1111000011110110010000001111000011110110010000001111000011110xxxxxxxx A
b1001 F
b10 H
b11 L
b10 M
b10 N
b10 O

#950000
0!
07
b1000011 Z

#955000
1!
b1100000 3
17
b111100001111000011110000111100001111000011110000111100001111000011110 A
1B
b1001 F
1G
b11 H
b11 L
b10 M
b11 N
b11 O

#960000
0!
07
b1000100 Z

#965000
1!
b1100001 3
17
b1001 F
b100 H
b11 L
b10 M
b100 N
b100 O
1R
b1001 S
b0 T

#970000
0!
07
b1000101 Z

#975000
1!
b1100010 3
17
b1001 F
b101 H
b11 L
b10 M
b101 N
b101 O
b1001 S
b0 U
1V

#980000
0!
07
b1000110 Z

#985000
1!
1*
b0 +
b1100011 3
17
b1001 F
b110 H
b11 L
b10 M
b110 N
b110 O
1P
b0 Q
b1001 S

#990000
0!
07
b1000111 Z

#995000
1!
b1 1
b1100100 3
b1100011 5
17
b1 D
b1001 F
b111 H
b11 L
b10 M
b111 N
b111 O
b1001 S

#1000000
0!
07
b1001000 Z

#1005000
1!
b10 1
b1100101 3
17
b10 D
b1001 F
b1000 H
b11 L
b10 M
b1000 N
b1000 O
b1001 S

#1010000
0!
07
b1001001 Z

#1015000
1!
b11 1
b1100110 3
17
b11 D
b1001 F
b1001 H
b11 L
b10 M
b1001 N
b1001 O
b1001 S

#1020000
0!
07
b1001010 Z

#1025000
1!
b100 1
b1100111 3
17
b100 D
b1001 F
b1010 H
b11 L
b10 M
b1010 N
b1010 O
b1001 S

#1030000
0!
07
b1001011 Z

#1035000
1!
b101 1
b1101000 3
17
b101 D
b1001 F
b1011 H
b11 L
b10 M
b1011 N
b1011 O
b1001 S

#1040000
0!
07
b1001100 Z

#1045000
1!
b110 1
b1101001 3
17
b110 D
b1001 F
b1100 H
b11 L
b10 M
b1100 N
b1100 O
b1001 S

#1050000
0!
07
b1001101 Z

#1055000
1!
b111 1
b1101010 3
17
b111 D
b1001 F
b1101 H
b11 L
b10 M
b1101 N
b1101 O
b1001 S

#1060000
0!
07
b1001110 Z

#1065000
1!
b1000 1
b1101011 3
17
b1000 D
b1001 F
b1110 H
b11 L
b10 M
b1110 N
b1110 O
b1001 S

#1070000
0!
07
b1001111 Z

#1075000
1!
b1001 1
b1101100 3
17
b1001 D
b1001 F
b1111 H
b11 L
b10 M
b1111 N
b1111 O
b1001 S

#1080000
0!
07
b1010000 Z

#1085000
1!
b1010 1
b1101101 3
17
b1010 D
b1001 F
b10000 H
b11001000 J
b11001000 K
b11 L
b10 M
b10000 N
b10000 O
b1001 S

#1090000
0!
b11001000 )
07
b11001000 ?
b1010001 Z

#1095000
1!
b1011 1
b1101110 3
17
b110010000001111000011110110010000001111000011110110010000001111000011110 A
b1011 D
b1001 F
b10001 H
b11 L
b10 M
b10001 N
b10001 O
b1001 S

#1100000
0!
07
b1010010 Z

#1105000
1!
b1100 1
b1101111 3
17
b110010001100100000011110110010001100100000011110110010001100100000011110 A
b1100 D
b1001 F
b10010 H
b11 L
b10 M
b10010 N
b10010 O
b1001 S
b1010101000 T

#1110000
0!
07
b1010011 Z

#1115000
1!
b1101 1
b1110000 3
17
b110010001100100011001000110010001100100011001000110010001100100011001000 A
b1101 D
b1001 F
b10011 H
b11 L
b10 M
b10011 N
b10011 O
b1001 S
b1010101000 U

#1120000
0!
07
b1010100 Z

#1125000
1!
b1010101000 +
b1110 1
b1110001 3
17
b1110 D
b1001 F
b10100 H
b11 L
b10 M
b10100 N
b10100 O
b1010101000 Q
b1001 S
b0 T

#1130000
0!
07
b1010101 Z

#1135000
1!
b1111 1
b1110010 3
17
b1111 D
b1001 F
b10101 H
b11 L
b10 M
b10101 N
b10101 O
b1001 S
b0 U

#1140000
0!
07
b1010110 Z

#1145000
1!
b0 +
b10000 1
b1110011 3
17
b10000 D
b1001 F
b10110 H
b11 L
b10 M
b10110 N
b10110 O
b0 Q
b1001 S

#1150000
0!
07
b1010111 Z

#1155000
1!
b10001 1
b1110100 3
17
b10001 D
b1001 F
b10111 H
b11 L
b10 M
b10111 N
b10111 O
b1001 S

#1160000
0!
07
b1011000 Z

#1165000
1!
b10010 1
b1110101 3
17
b10010 D
b1001 F
b11000 H
b11 L
b10 M
b11000 N
b11000 O
b1001 S

#1170000
0!
07
b1011001 Z

#1175000
1!
b10011 1
b1110110 3
17
b10011 D
b1001 F
b11001 H
b11 L
b10 M
b11001 N
b11001 O
b1001 S

#1180000
0!
07
b1011010 Z

#1185000
1!
b10100 1
b1110111 3
17
b10100 D
b1001 F
b11010 H
b11 L
b10 M
b11010 N
b11010 O
b1001 S

#1190000
0!
07
b1011011 Z

#1195000
1!
b10101 1
b1111000 3
17
b10101 D
b1001 F
b11011 H
b11 L
b10 M
b11011 N
b11011 O
b1001 S

#1200000
0!
07
b1011100 Z

#1205000
1!
b10110 1
b1111001 3
17
b10110 D
b1001 F
b11100 H
b11 L
b10 M
b11100 N
b11100 O
b1001 S

#1210000
0!
07
b1011101 Z

#1215000
1!
b10111 1
b1111010 3
17
b10111 D
b1001 F
b11101 H
b11 L
b10 M
b11101 N
b11101 O
b1001 S

#1220000
0!
07
b1011110 Z

#1225000
1!
b11000 1
b1111011 3
17
b11000 D
b1001 F
b11110 H
b11 L
b10 M
b11110 N
b11110 O
b1001 S

#1230000
0!
07
b1011111 Z

#1235000
1!
b11001 1
b1111100 3
17
b11001 D
b1001 F
b11111 H
b11 L
b10 M
b11111 N
b11111 O
b1001 S

#1240000
0!
07
b1100000 Z

#1245000
1!
b11010 1
b1111101 3
17
b11010 D
b1001 F
b0 H
b11 I
b11110 J
b11110 K
b11 L
b10 M
b0 N
b0 O
b1001 S

#1250000
0!
b11110 )
07
b11110 ?
b1100001 Z

#1255000
1!
b11011 1
b1111110 3
17
b111101100100011001000000111101100100011001000000111101100100011001000 A
0B
b11011 D
b1001 F
0G
b1 H
b11 L
b10 M
b1 N
b1 O
b1001 S

#1260000
0!
07
b1100010 Z

#1265000
1!
b11100 1
b1111111 3
17
b111100001111011001000000111100001111011001000000111100001111011001000 A
b11100 D
b1001 F
b10 H
b11 L
b10 M
b10 N
b10 O
0R

#1270000
0!
07
b1100011 Z

#1275000
1!
b11101 1
b10000000 3
17
b111100001111000011110000111100001111000011110000111100001111000011110 A
1B
b11101 D
b1001 F
1G
b11 H
b11 L
b10 M
b11 N
b11 O
0V

#1280000
0!
07
b1100100 Z

#1285000
1!
0*
b11110 1
b10000001 3
17
b11110 D
b1001 F
b100 H
b11 L
b10 M
b100 N
b100 O
0P
1R
b1001 S
b0 T

#1290000
0!
07
b1100101 Z

#1295000
1!
b10000010 3
17
b1001 F
b101 H
b11 L
b10 M
b101 N
b101 O
b1001 S
1V

#1300000
0!
07
b1100110 Z

#1305000
1!
1*
b10000011 3
17
b1001 F
b110 H
b11 L
b10 M
b110 N
b110 O
1P
b1001 S

#1310000
0!
07
b1100111 Z

#1315000
1!
b11111 1
b10000100 3
17
b11111 D
b1001 F
b111 H
b11 L
b10 M
b111 N
b111 O
b1001 S

#1320000
0!
07
b1101000 Z

#1325000
1!
b100000 1
b10000101 3
17
b100000 D
b1001 F
b1000 H
b11 L
b10 M
b1000 N
b1000 O
b1001 S

#1330000
0!
07
b1101001 Z

#1335000
1!
b100001 1
b10000110 3
17
b100001 D
b1001 F
b1001 H
b11 L
b10 M
b1001 N
b1001 O
b1001 S

#1340000
0!
07
b1101010 Z

#1345000
1!
b100010 1
b10000111 3
17
b100010 D
b1001 F
b1010 H
b11 L
b10 M
b1010 N
b1010 O
b1001 S

#1350000
0!
07
b1101011 Z

#1355000
1!
b100011 1
b10001000 3
17
b100011 D
b1001 F
b1011 H
b11 L
b10 M
b1011 N
b1011 O
b1001 S

#1360000
0!
07
b1101100 Z

#1365000
1!
b100100 1
b10001001 3
17
b100100 D
b1001 F
b1100 H
b11 L
b10 M
b1100 N
b1100 O
b1001 S

#1370000
0!
07
b1101101 Z

#1375000
1!
b100101 1
b10001010 3
17
b100101 D
b1001 F
b1101 H
b11 L
b10 M
b1101 N
b1101 O
b1001 S

#1380000
0!
07
b1101110 Z

#1385000
1!
b100110 1
b10001011 3
17
b100110 D
b1001 F
b1110 H
b11 L
b10 M
b1110 N
b1110 O
b1001 S

#1390000
0!
07
b1101111 Z

#1395000
1!
b100111 1
b10001100 3
17
b100111 D
b1001 F
b1111 H
b11 L
b10 M
b1111 N
b1111 O
b1001 S

#1400000
0!
07
b1110000 Z

#1405000
1!
b101000 1
b10001101 3
17
b101000 D
b1001 F
b10000 H
b11001000 J
b11001000 K
b11 L
b10 M
b10000 N
b10000 O
b1001 S

#1410000
0!
b11001000 )
07
b11001000 ?
b1110001 Z

#1415000
1!
b101001 1
b10001110 3
17
b110010000001111000011110110010000001111000011110110010000001111000011110 A
b101001 D
b1001 F
b10001 H
b11 L
b10 M
b10001 N
b10001 O
b1001 S

#1420000
0!
07
b1110010 Z

#1425000
1!
b101010 1
b10001111 3
17
b110010001100100000011110110010001100100000011110110010001100100000011110 A
b101010 D
b1001 F
b10010 H
b11 L
b10 M
b10010 N
b10010 O
b1001 S
b1010101000 T

#1430000
0!
07
b1110011 Z

#1435000
1!
b101011 1
b10010000 3
17
b110010001100100011001000110010001100100011001000110010001100100011001000 A
b101011 D
b1001 F
b10011 H
b11 L
b10 M
b10011 N
b10011 O
b1001 S
b1010101000 U

#1440000
0!
07
b1110100 Z

#1445000
1!
b1010101000 +
b101100 1
b10010001 3
17
b101100 D
b1001 F
b10100 H
b11 L
b10 M
b10100 N
b10100 O
b1010101000 Q
b1001 S
b0 T

#1450000
0!
07
b1110101 Z

#1455000
1!
b101101 1
b10010010 3
17
b101101 D
b1001 F
b10101 H
b11 L
b10 M
b10101 N
b10101 O
b1001 S
b0 U

#1460000
0!
07
b1110110 Z

#1465000
1!
b0 +
b101110 1
b10010011 3
17
b101110 D
b1001 F
b10110 H
b11 L
b10 M
b10110 N
b10110 O
b0 Q
b1001 S

#1470000
0!
07
b1110111 Z

#1475000
1!
b101111 1
b10010100 3
17
b101111 D
b1001 F
b10111 H
b11 L
b10 M
b10111 N
b10111 O
b1001 S

#1480000
0!
07
b1111000 Z

#1485000
1!
b110000 1
b10010101 3
17
b110000 D
b1001 F
b11000 H
b11 L
b10 M
b11000 N
b11000 O
b1001 S

#1490000
0!
07
b1111001 Z

#1495000
1!
b110001 1
b10010110 3
17
b110001 D
b1001 F
b11001 H
b11 L
b10 M
b11001 N
b11001 O
b1001 S

#1500000
0!
07
b1111010 Z

#1505000
1!
b110010 1
b10010111 3
17
b110010 D
b1001 F
b11010 H
b11 L
b10 M
b11010 N
b11010 O
b1001 S

#1510000
0!
07
b1111011 Z

#1515000
1!
b110011 1
b10011000 3
17
b110011 D
b1001 F
b11011 H
b11 L
b10 M
b11011 N
b11011 O
b1001 S

#1520000
0!
07
b1111100 Z

#1525000
1!
b110100 1
b10011001 3
17
b110100 D
b1001 F
b11100 H
b11 L
b10 M
b11100 N
b11100 O
b1001 S

#1530000
0!
07
b1111101 Z

#1535000
1!
b110101 1
b10011010 3
17
b110101 D
b1001 F
b11101 H
b11 L
b10 M
b11101 N
b11101 O
b1001 S

#1540000
0!
07
b1111110 Z

#1545000
1!
b110110 1
b10011011 3
17
b110110 D
b1001 F
b11110 H
b11 L
b10 M
b11110 N
b11110 O
b1001 S

#1550000
0!
07
b1111111 Z

#1555000
1!
b110111 1
b10011100 3
17
b110111 D
b1001 F
b11111 H
b11 L
b10 M
b11111 N
b11111 O
b1001 S

#1560000
0!
07
b10000000 Z

#1565000
1!
b111000 1
b10011101 3
17
b111000 D
b1001 F
b0 H
b100 I
b11110 J
b11110 K
b11 L
b10 M
b0 N
b0 O
b1001 S

#1570000
0!
b11110 )
07
b11110 ?
b10000001 Z

